{
  "findAllConfigByCategory" : {
    "transaction" : "findAllConfigByCategory",
    "sampleCount" : 3757,
    "errorCount" : 115,
    "errorPct" : 3.060953,
    "meanResTime" : 848.3678466861818,
    "medianResTime" : 118.0,
    "minResTime" : 9.0,
    "maxResTime" : 22004.0,
    "pct1ResTime" : 478.0,
    "pct2ResTime" : 3076.2999999999997,
    "pct3ResTime" : 20934.52,
    "throughput" : 12.986429405949492,
    "receivedKBytesPerSec" : 12.803776687077862,
    "sentKBytesPerSec" : 10.351436928365514
  },
  "getChildCheckInCheckOutByArea" : {
    "transaction" : "getChildCheckInCheckOutByArea",
    "sampleCount" : 2719,
    "errorCount" : 116,
    "errorPct" : 4.2662745,
    "meanResTime" : 4994.434718646557,
    "medianResTime" : 4079.0,
    "minResTime" : 80.0,
    "maxResTime" : 21990.0,
    "pct1ResTime" : 10082.0,
    "pct2ResTime" : 12029.0,
    "pct3ResTime" : 21236.0,
    "throughput" : 9.38414600474902,
    "receivedKBytesPerSec" : 49.969309518704435,
    "sentKBytesPerSec" : 29.828998831727315
  },
  "Total" : {
    "transaction" : "Total",
    "sampleCount" : 24456,
    "errorCount" : 807,
    "errorPct" : 3.2998037,
    "meanResTime" : 1636.6730454694045,
    "medianResTime" : 307.0,
    "minResTime" : 9.0,
    "maxResTime" : 22004.0,
    "pct1ResTime" : 1808.0,
    "pct2ResTime" : 4151.9000000000015,
    "pct3ResTime" : 9356.980000000003,
    "throughput" : 84.29324785441008,
    "receivedKBytesPerSec" : 135.15240272140937,
    "sentKBytesPerSec" : 107.9575824576483
  },
  "me" : {
    "transaction" : "me",
    "sampleCount" : 3477,
    "errorCount" : 115,
    "errorPct" : 3.3074489,
    "meanResTime" : 1657.337647397177,
    "medianResTime" : 680.0,
    "minResTime" : 31.0,
    "maxResTime" : 21805.0,
    "pct1ResTime" : 2856.2000000000016,
    "pct2ResTime" : 7380.899999999989,
    "pct3ResTime" : 20677.519999999997,
    "throughput" : 11.99565299891325,
    "receivedKBytesPerSec" : 17.18491923763606,
    "sentKBytesPerSec" : 26.13151268522192
  },
  "getAllClassInfo" : {
    "transaction" : "getAllClassInfo",
    "sampleCount" : 3673,
    "errorCount" : 118,
    "errorPct" : 3.2126327,
    "meanResTime" : 1078.5058535257324,
    "medianResTime" : 326.0,
    "minResTime" : 16.0,
    "maxResTime" : 21904.0,
    "pct1ResTime" : 1150.1999999999994,
    "pct2ResTime" : 3665.8999999999937,
    "pct3ResTime" : 20562.65999999999,
    "throughput" : 12.66866256449877,
    "receivedKBytesPerSec" : 15.185265959350252,
    "sentKBytesPerSec" : 11.986256474667849
  },
  "dismissChildCheckInByVPS" : {
    "transaction" : "dismissChildCheckInByVPS",
    "sampleCount" : 3663,
    "errorCount" : 114,
    "errorPct" : 3.1122031,
    "meanResTime" : 1083.038766038766,
    "medianResTime" : 340.0,
    "minResTime" : 14.0,
    "maxResTime" : 21847.0,
    "pct1ResTime" : 1209.1999999999998,
    "pct2ResTime" : 3585.5999999999954,
    "pct3ResTime" : 20673.68,
    "throughput" : 12.634737767966474,
    "receivedKBytesPerSec" : 8.383639924633082,
    "sentKBytesPerSec" : 9.348503817929393
  },
  "getAllArea" : {
    "transaction" : "getAllArea",
    "sampleCount" : 3543,
    "errorCount" : 116,
    "errorPct" : 3.2740614,
    "meanResTime" : 1480.1896697713867,
    "medianResTime" : 545.0,
    "minResTime" : 17.0,
    "maxResTime" : 21940.0,
    "pct1ResTime" : 2336.199999999999,
    "pct2ResTime" : 6172.599999999999,
    "pct3ResTime" : 20817.28,
    "throughput" : 12.214966868238328,
    "receivedKBytesPerSec" : 23.547460666806874,
    "sentKBytesPerSec" : 11.618893189931876
  },
  "addClassesToArea" : {
    "transaction" : "addClassesToArea",
    "sampleCount" : 3624,
    "errorCount" : 113,
    "errorPct" : 3.1181016,
    "meanResTime" : 1193.1269315673296,
    "medianResTime" : 419.0,
    "minResTime" : 19.0,
    "maxResTime" : 21855.0,
    "pct1ResTime" : 1449.5,
    "pct2ResTime" : 4057.0,
    "pct3ResTime" : 20836.25,
    "throughput" : 12.49599155899908,
    "receivedKBytesPerSec" : 8.223611015928597,
    "sentKBytesPerSec" : 8.80784533257992
  }
}